Section 4 Group Size | Proescholdt Thesis Bookdown
…
            Proescholdt Thesis Bookdown

Section 4 Group Size

One of my main questions is about group size: whether there is a characteristic group size, when large groups form, and how typical group size scales with population. Large groups and flow between groups are important for disease transmission, and this dataset provides a rare opportunity to understand group sizes in bighorn sheep.

#What was the biggest group observed and when?
census %>%
  as_tibble %>% 
  select(group_size, date) %>%
  group_by(group_size) %>% 
  arrange(desc(group_size))

## # A tibble: 21,204 x 2
## # Groups:   group_size [70]
##    group_size date      
##         <int> <chr>     
##  1         85 06/15/2014
##  2         80 06/04/2015
##  3         80 06/20/2015
##  4         79 10/27/2014
##  5         77 11/07/2014
##  6         74 09/28/2012
##  7         73 10/25/2015
##  8         71 06/07/2014
##  9         68 10/29/2013
## 10         67 09/07/2013
## # ... with 21,194 more rows
…
